%YAML 1.1
%TAG !u! tag:unity3d.com,2011:
--- !u!114 &11400000
MonoBehaviour:
  m_ObjectHideFlags: 0
  m_CorrespondingSourceObject: {fileID: 0}
  m_PrefabInstance: {fileID: 0}
  m_PrefabAsset: {fileID: 0}
  m_GameObject: {fileID: 0}
  m_Enabled: 1
  m_EditorHideFlags: 0
  m_Script: {fileID: 11500000, guid: 31025668fa109466c8089d0b97d513b8, type: 3}
  m_Name: Food1Data
  m_EditorClassIdentifier: 
  trashType: 9
  title: "\u041F\u043E\u043D\u0447\u0438\u043A"
  icon: {fileID: 21300000, guid: 295c01c695b4a47f88b9fa370ff27f52, type: 3}
  sortingItem: {fileID: 21300000, guid: 295c01c695b4a47f88b9fa370ff27f52, type: 3}
  materialType: 0
