%YAML 1.1
%TAG !u! tag:unity3d.com,2011:
--- !u!114 &11400000
MonoBehaviour:
  m_ObjectHideFlags: 0
  m_CorrespondingSourceObject: {fileID: 0}
  m_PrefabInstance: {fileID: 0}
  m_PrefabAsset: {fileID: 0}
  m_GameObject: {fileID: 0}
  m_Enabled: 1
  m_EditorHideFlags: 0
  m_Script: {fileID: 11500000, guid: 8cf089d6db1b14faf88d0c5f6f2d2e42, type: 3}
  m_Name: FoodFactoryDBData2
  m_EditorClassIdentifier: 
  factoryId: foodFactory2
  title: "\u043F\u0435\u0440\u0435\u0440\u0430\u0431\u043E\u0442\u043A\u0438 \u043E\u0440\u0433\u0430\u043D\u0438\u043A\u0438"
  unlockLevel: 6
  factoryLogo: {fileID: 21300000, guid: 07f06530949f44bd7abe1b9e77d6ebd7, type: 3}
  containerLogo: {fileID: 21300000, guid: 0cac3f63cc4584711866cfe369a9b30b, type: 3}
  factoryIcon: {fileID: 21300000, guid: f229f5bf4499b1c458ed6eaddaeda7e1, type: 3}
  trashType: 0
