%YAML 1.1
%TAG !u! tag:unity3d.com,2011:
--- !u!114 &11400000
MonoBehaviour:
  m_ObjectHideFlags: 0
  m_CorrespondingSourceObject: {fileID: 0}
  m_PrefabInstance: {fileID: 0}
  m_PrefabAsset: {fileID: 0}
  m_GameObject: {fileID: 0}
  m_Enabled: 1
  m_EditorHideFlags: 0
  m_Script: {fileID: 11500000, guid: 31025668fa109466c8089d0b97d513b8, type: 3}
  m_Name: Paper1Data1
  m_EditorClassIdentifier: 
  trashType: 6
  title: "\u041A\u043E\u043C\u043E\u043A \u0431\u0443\u043C\u0430\u0433\u0438"
  icon: {fileID: 21300000, guid: 7830764dc5d1e4982810217603ef09b4, type: 3}
  sortingItem: {fileID: 21300000, guid: 7830764dc5d1e4982810217603ef09b4, type: 3}
  materialType: 1
